[gd_scene load_steps=3 format=3 uid="uid://qd15m3b4v4ih"]

[ext_resource type="Script" path="res://PossesionTutorial/PossesionTutorial.gd" id="1_lajs8"]
[ext_resource type="Texture2D" uid="uid://b7wi1xev3k0sy" path="res://PossesionTutorial/cursor.png" id="1_qlxjv"]

[node name="PossesionTutorial" type="Control"]
layout_mode = 3
anchors_preset = 15
anchor_right = 1.0
anchor_bottom = 1.0
grow_horizontal = 2
grow_vertical = 2
mouse_filter = 2
script = ExtResource("1_lajs8")

[node name="Sprite2D" type="Sprite2D" parent="."]
texture_filter = 3
scale = Vector2(2, 2)
texture = ExtResource("1_qlxjv")
