[gd_scene load_steps=8 format=3 uid="uid://bb0a6mxyp3pfe"]

[ext_resource type="Script" path="res://Player/Player.gd" id="1_io15q"]
[ext_resource type="Texture2D" uid="uid://b767deihprqd" path="res://Player/Player.png" id="2_rd4qg"]

[sub_resource type="RectangleShape2D" id="RectangleShape2D_nwyxn"]
size = Vector2(8, 8)

[sub_resource type="OccluderPolygon2D" id="OccluderPolygon2D_3dx45"]
polygon = PackedVector2Array(-4, -4, 4, -4, 4, 4, -4, 4)

[sub_resource type="Gradient" id="Gradient_uahff"]
colors = PackedColorArray(1, 1, 1, 0.196078, 1, 1, 1, 0)

[sub_resource type="GradientTexture1D" id="GradientTexture1D_66n8q"]
gradient = SubResource("Gradient_uahff")
width = 16

[sub_resource type="ParticleProcessMaterial" id="ParticleProcessMaterial_5fxjb"]
particle_flag_disable_z = true
gravity = Vector3(0, 0, 0)
orbit_velocity_min = 0.0
orbit_velocity_max = 0.0
color_ramp = SubResource("GradientTexture1D_66n8q")

[node name="Player" type="CharacterBody2D" groups=["Player"]]
z_index = 1
collision_layer = 2
collision_mask = 7
script = ExtResource("1_io15q")

[node name="CollisionShape2D" type="CollisionShape2D" parent="."]
shape = SubResource("RectangleShape2D_nwyxn")

[node name="Sprite2D" type="Sprite2D" parent="."]
texture_filter = 3
texture = ExtResource("2_rd4qg")

[node name="SpotEnemy" type="RayCast2D" parent="."]
rotation = -1.57079
target_position = Vector2(5.33104e-05, 24)
collision_mask = 4

[node name="SpotPit" type="RayCast2D" parent="."]
texture_filter = 3
position = Vector2(5, 0)
target_position = Vector2(0, 20)
collision_mask = 7

[node name="LightOccluder2D" type="LightOccluder2D" parent="."]
occluder = SubResource("OccluderPolygon2D_3dx45")

[node name="GPUParticles2D" type="GPUParticles2D" parent="."]
z_index = -1
texture_filter = 3
amount = 2
process_material = SubResource("ParticleProcessMaterial_5fxjb")
texture = ExtResource("2_rd4qg")
lifetime = 0.3
