[gd_scene load_steps=9 format=3 uid="uid://b87u170eol4w4"]

[ext_resource type="PackedScene" uid="uid://bxx2v4vvtfvtc" path="res://Levels/Level.tscn" id="1_je7nw"]
[ext_resource type="PackedScene" uid="uid://bb0a6mxyp3pfe" path="res://Player/Player.tscn" id="2_hic1q"]
[ext_resource type="PackedScene" uid="uid://duki6iffgn1pm" path="res://Item/Enemy/Enemy.tscn" id="3_xc3ky"]
[ext_resource type="PackedScene" uid="uid://dtel3x1c884u5" path="res://Goal/Goal.tscn" id="4_ksukj"]
[ext_resource type="PackedScene" uid="uid://dwi5d5v4xy736" path="res://MiniTutorials/EnemyTutorial.tscn" id="5_jy18p"]
[ext_resource type="PackedScene" uid="uid://b2ulkfw1k5w75" path="res://Item/Coin/Coin.tscn" id="6_jr4qv"]
[ext_resource type="PackedScene" uid="uid://c14llkt08f4ss" path="res://MovementTutorial/MovementTutorial.tscn" id="7_v6qpi"]

[sub_resource type="Curve2D" id="Curve2D_u6rgx"]
bake_interval = 256.0
_data = {
"points": PackedVector2Array(0, 0, 0, 0, 20, -4, 0, 0, 0, 0, 303, -4, 0, 0, 0, 0, 287, -4)
}
point_count = 3

[node name="Level" instance=ExtResource("1_je7nw")]

[node name="TileMap" parent="." index="1"]
layer_0/tile_data = PackedInt32Array(0, 65539, 2, 1, 3, 0, 2, 3, 0, 3, 3, 0, 4, 3, 0, 5, 3, 0, 6, 3, 0, 7, 3, 0, 8, 3, 0, 9, 3, 0, 17, 3, 0, 18, 3, 0, 19, 3, 0, 20, 3, 0, 21, 3, 0, 22, 3, 0, 23, 3, 0, 24, 3, 0, 25, 3, 0, 26, 3, 0, 27, 3, 0, 28, 3, 0, 29, 3, 0, 30, 196611, 2, 34, 65539, 2, 35, 3, 0, 36, 3, 0, 37, 3, 0, 38, 3, 0, 41, 3, 0, 42, 3, 0, 43, 3, 0, 44, 3, 0, 45, 3, 0, 46, 3, 0, 47, 3, 0, 48, 3, 0, 49, 3, 0, 50, 3, 0, 51, 3, 0, 52, 3, 0, 40, 3, 0, 39, 3, 0, 53, 196611, 2, 16, 3, 0, 15, 3, 0, 14, 3, 0, 13, 65539, 2, 10, 196611, 2, -65528, 196611, 0, -65535, 196611, 0, -65519, 196611, 0, -65515, 196611, 0, -65514, 131075, 0, -65508, 131075, 0, -65511, 131075, 0, -65517, 131075, 0, -65522, 131075, 0, -65495, 131075, 0)
layer_1/tile_data = PackedInt32Array(-1966079, 65539, 0, -1900543, 65539, 0, -1835007, 65539, 0, -1769471, 65539, 0, -1703935, 65539, 0, -1638399, 65539, 0, -1572863, 65539, 0, -1507327, 65539, 0, -1441791, 65539, 0, -1376255, 65539, 0, -1310719, 65539, 0, -1245183, 65539, 0, -1179647, 65539, 0, -1114111, 65539, 0, -1048575, 65539, 0, -983039, 65539, 0, -917503, 65539, 0, -851967, 65539, 0, -786431, 65539, 0, -720895, 65539, 0, -655359, 65539, 0, -589823, 65539, 0, -524287, 65539, 0, -458751, 65539, 0, -393215, 65539, 0, -327679, 65539, 0, -262143, 65539, 0, -196607, 65539, 0, -131071, 65539, 0, -65535, 65539, 0, 1, 65539, 0, -1966078, 65539, 0, -1900542, 65539, 0, -1835006, 65539, 0, -1769470, 65539, 0, -1703934, 65539, 0, -1638398, 65539, 0, -1572862, 65539, 0, -1507326, 65539, 0, -1441790, 65539, 0, -1376254, 65539, 0, -1310718, 65539, 0, -1245182, 65539, 0, -1179646, 65539, 0, -1114110, 65539, 0, -1048574, 65539, 0, -983038, 65539, 0, -917502, 65539, 0, -851966, 65539, 0, -786430, 65539, 0, -720894, 65539, 0, -655358, 65539, 0, -589822, 65539, 0, -524286, 65539, 0, -458750, 65539, 0, -393214, 65539, 0, -327678, 65539, 0, -262142, 65539, 0, -196606, 65539, 0, -131070, 65539, 0, -65534, 65539, 0, 2, 65539, 0, -1966077, 65539, 0, -1900541, 65539, 0, -1835005, 65539, 0, -1769469, 65539, 0, -1703933, 65539, 0, -1638397, 65539, 0, -1572861, 65539, 0, -1507325, 65539, 0, -1441789, 65539, 0, -1376253, 65539, 0, -1310717, 65539, 0, -1245181, 65539, 0, -1179645, 65539, 0, -1114109, 65539, 0, -1048573, 65539, 0, -983037, 65539, 0, -917501, 65539, 0, -851965, 65539, 0, -786429, 65539, 0, -720893, 65539, 0, -655357, 65539, 0, -589821, 65539, 0, -524285, 65539, 0, -458749, 65539, 0, -393213, 65539, 0, -327677, 65539, 0, -262141, 65539, 0, -196605, 65539, 0, -131069, 65539, 0, -65533, 65539, 0, 3, 65539, 0, -1966076, 65539, 0, -1900540, 65539, 0, -1835004, 65539, 0, -1769468, 65539, 0, -1703932, 65539, 0, -1638396, 65539, 0, -1572860, 65539, 0, -1507324, 65539, 0, -1441788, 65539, 0, -1376252, 65539, 0, -1310716, 65539, 0, -1245180, 65539, 0, -1179644, 65539, 0, -1114108, 65539, 0, -1048572, 65539, 0, -983036, 65539, 0, -917500, 65539, 0, -851964, 65539, 0, -786428, 65539, 0, -720892, 65539, 0, -655356, 65539, 0, -589820, 65539, 0, -524284, 65539, 0, -458748, 65539, 0, -393212, 65539, 0, -327676, 65539, 0, -262140, 65539, 0, -196604, 65539, 0, -131068, 65539, 0, -65532, 65539, 0, 4, 65539, 0, -1966075, 65539, 0, -1900539, 65539, 0, -1835003, 65539, 0, -1769467, 65539, 0, -1703931, 65539, 0, -1638395, 65539, 0, -1572859, 65539, 0, -1507323, 65539, 0, -1441787, 65539, 0, -1376251, 65539, 0, -1310715, 65539, 0, -1245179, 65539, 0, -1179643, 65539, 0, -1114107, 65539, 0, -1048571, 65539, 0, -983035, 65539, 0, -917499, 65539, 0, -851963, 65539, 0, -786427, 65539, 0, -720891, 65539, 0, -655355, 65539, 0, -589819, 65539, 0, -524283, 65539, 0, -458747, 65539, 0, -393211, 65539, 0, -327675, 65539, 0, -262139, 65539, 0, -196603, 65539, 0, -131067, 65539, 0, -65531, 65539, 0, 5, 65539, 0, -1966074, 65539, 0, -1900538, 65539, 0, -1835002, 65539, 0, -1769466, 65539, 0, -1703930, 65539, 0, -1638394, 65539, 0, -1572858, 65539, 0, -1507322, 65539, 0, -1441786, 65539, 0, -1376250, 65539, 0, -1310714, 65539, 0, -1245178, 65539, 0, -1179642, 65539, 0, -1114106, 65539, 0, -1048570, 65539, 0, -983034, 65539, 0, -917498, 65539, 0, -851962, 65539, 0, -786426, 65539, 0, -720890, 65539, 0, -655354, 65539, 0, -589818, 65539, 0, -524282, 65539, 0, -458746, 65539, 0, -393210, 65539, 0, -327674, 65539, 0, -262138, 65539, 0, -196602, 65539, 0, -131066, 65539, 0, -65530, 65539, 0, 6, 65539, 0, -1966073, 65539, 0, -1900537, 65539, 0, -1835001, 65539, 0, -1769465, 65539, 0, -1703929, 65539, 0, -1638393, 65539, 0, -1572857, 65539, 0, -1507321, 65539, 0, -1441785, 65539, 0, -1376249, 65539, 0, -1310713, 65539, 0, -1245177, 65539, 0, -1179641, 65539, 0, -1114105, 65539, 0, -1048569, 65539, 0, -983033, 65539, 0, -917497, 65539, 0, -851961, 65539, 0, -786425, 65539, 0, -720889, 65539, 0, -655353, 65539, 0, -589817, 65539, 0, -524281, 65539, 0, -458745, 65539, 0, -393209, 65539, 0, -327673, 65539, 0, -262137, 65539, 0, -196601, 65539, 0, -131065, 65539, 0, -65529, 65539, 0, 7, 65539, 0, -1966072, 65539, 0, -1900536, 65539, 0, -1835000, 65539, 0, -1769464, 65539, 0, -1703928, 65539, 0, -1638392, 65539, 0, -1572856, 65539, 0, -1507320, 65539, 0, -1441784, 65539, 0, -1376248, 65539, 0, -1310712, 65539, 0, -1245176, 65539, 0, -1179640, 65539, 0, -1114104, 65539, 0, -1048568, 65539, 0, -983032, 65539, 0, -917496, 65539, 0, -851960, 65539, 0, -786424, 65539, 0, -720888, 65539, 0, -655352, 65539, 0, -589816, 65539, 0, -524280, 65539, 0, -458744, 65539, 0, -393208, 65539, 0, -327672, 65539, 0, -262136, 65539, 0, -196600, 65539, 0, -131064, 65539, 0, -65528, 65539, 0, 8, 65539, 0, -1966071, 65539, 0, -1900535, 65539, 0, -1834999, 65539, 0, -1769463, 65539, 0, -1703927, 65539, 0, -1638391, 65539, 0, -1572855, 65539, 0, -1507319, 65539, 0, -1441783, 65539, 0, -1376247, 65539, 0, -1310711, 65539, 0, -1245175, 65539, 0, -1179639, 65539, 0, -1114103, 65539, 0, -1048567, 65539, 0, -983031, 65539, 0, -917495, 65539, 0, -851959, 65539, 0, -786423, 65539, 0, -720887, 65539, 0, -655351, 65539, 0, -589815, 65539, 0, -524279, 65539, 0, -458743, 65539, 0, -393207, 65539, 0, -327671, 65539, 0, -262135, 65539, 0, -196599, 65539, 0, -131063, 65539, 0, -65527, 65539, 0, 9, 65539, 0, -1966070, 65539, 0, -1900534, 65539, 0, -1834998, 65539, 0, -1769462, 65539, 0, -1703926, 65539, 0, -1638390, 65539, 0, -1572854, 65539, 0, -1507318, 65539, 0, -1441782, 65539, 0, -1376246, 65539, 0, -1310710, 65539, 0, -1245174, 65539, 0, -1179638, 65539, 0, -1114102, 65539, 0, -1048566, 65539, 0, -983030, 65539, 0, -917494, 65539, 0, -851958, 65539, 0, -786422, 65539, 0, -720886, 65539, 0, -655350, 65539, 0, -589814, 65539, 0, -524278, 65539, 0, -458742, 65539, 0, -393206, 65539, 0, -327670, 65539, 0, -262134, 65539, 0, -196598, 65539, 0, -131062, 65539, 0, -65526, 65539, 0, 10, 65539, 0, -1966069, 65539, 0, -1900533, 65539, 0, -1834997, 65539, 0, -1769461, 65539, 0, -1703925, 65539, 0, -1638389, 65539, 0, -1572853, 65539, 0, -1507317, 65539, 0, -1441781, 65539, 0, -1376245, 65539, 0, -1310709, 65539, 0, -1245173, 65539, 0, -1179637, 65539, 0, -1114101, 65539, 0, -1048565, 65539, 0, -983029, 65539, 0, -917493, 65539, 0, -851957, 65539, 0, -786421, 65539, 0, -720885, 65539, 0, -655349, 65539, 0, -589813, 65539, 0, -524277, 65539, 0, -458741, 65539, 0, -393205, 65539, 0, -327669, 65539, 0, -262133, 65539, 0, -196597, 65539, 0, -131061, 65539, 0, -65525, 65539, 0, 11, 65539, 0, -1966068, 65539, 0, -1900532, 65539, 0, -1834996, 65539, 0, -1769460, 65539, 0, -1703924, 65539, 0, -1638388, 65539, 0, -1572852, 65539, 0, -1507316, 65539, 0, -1441780, 65539, 0, -1376244, 65539, 0, -1310708, 65539, 0, -1245172, 65539, 0, -1179636, 65539, 0, -1114100, 65539, 0, -1048564, 65539, 0, -983028, 65539, 0, -917492, 65539, 0, -851956, 65539, 0, -786420, 65539, 0, -720884, 65539, 0, -655348, 65539, 0, -589812, 65539, 0, -524276, 65539, 0, -458740, 65539, 0, -393204, 65539, 0, -327668, 65539, 0, -262132, 65539, 0, -196596, 65539, 0, -131060, 65539, 0, -65524, 65539, 0, 12, 65539, 0, -1966067, 65539, 0, -1900531, 65539, 0, -1834995, 65539, 0, -1769459, 65539, 0, -1703923, 65539, 0, -1638387, 65539, 0, -1572851, 65539, 0, -1507315, 65539, 0, -1441779, 65539, 0, -1376243, 65539, 0, -1310707, 65539, 0, -1245171, 65539, 0, -1179635, 65539, 0, -1114099, 65539, 0, -1048563, 65539, 0, -983027, 65539, 0, -917491, 65539, 0, -851955, 65539, 0, -786419, 65539, 0, -720883, 65539, 0, -655347, 65539, 0, -589811, 65539, 0, -524275, 65539, 0, -458739, 65539, 0, -393203, 65539, 0, -327667, 65539, 0, -262131, 65539, 0, -196595, 65539, 0, -131059, 65539, 0, -65523, 65539, 0, 13, 65539, 0, -1966066, 65539, 0, -1900530, 65539, 0, -1834994, 65539, 0, -1769458, 65539, 0, -1703922, 65539, 0, -1638386, 65539, 0, -1572850, 65539, 0, -1507314, 65539, 0, -1441778, 65539, 0, -1376242, 65539, 0, -1310706, 65539, 0, -1245170, 65539, 0, -1179634, 65539, 0, -1114098, 65539, 0, -1048562, 65539, 0, -983026, 65539, 0, -917490, 65539, 0, -851954, 65539, 0, -786418, 65539, 0, -720882, 65539, 0, -655346, 65539, 0, -589810, 65539, 0, -524274, 65539, 0, -458738, 65539, 0, -393202, 65539, 0, -327666, 65539, 0, -262130, 65539, 0, -196594, 65539, 0, -131058, 65539, 0, -65522, 65539, 0, 14, 65539, 0, -1966065, 65539, 0, -1900529, 65539, 0, -1834993, 65539, 0, -1769457, 65539, 0, -1703921, 65539, 0, -1638385, 65539, 0, -1572849, 65539, 0, -1507313, 65539, 0, -1441777, 65539, 0, -1376241, 65539, 0, -1310705, 65539, 0, -1245169, 65539, 0, -1179633, 65539, 0, -1114097, 65539, 0, -1048561, 65539, 0, -983025, 65539, 0, -917489, 65539, 0, -851953, 65539, 0, -786417, 65539, 0, -720881, 65539, 0, -655345, 65539, 0, -589809, 65539, 0, -524273, 65539, 0, -458737, 65539, 0, -393201, 65539, 0, -327665, 65539, 0, -262129, 65539, 0, -196593, 65539, 0, -131057, 65539, 0, -65521, 65539, 0, 15, 65539, 0, -1966064, 65539, 0, -1900528, 65539, 0, -1834992, 65539, 0, -1769456, 65539, 0, -1703920, 65539, 0, -1638384, 65539, 0, -1572848, 65539, 0, -1507312, 65539, 0, -1441776, 65539, 0, -1376240, 65539, 0, -1310704, 65539, 0, -1245168, 65539, 0, -1179632, 65539, 0, -1114096, 65539, 0, -1048560, 65539, 0, -983024, 65539, 0, -917488, 65539, 0, -851952, 65539, 0, -786416, 65539, 0, -720880, 65539, 0, -655344, 65539, 0, -589808, 65539, 0, -524272, 65539, 0, -458736, 65539, 0, -393200, 65539, 0, -327664, 65539, 0, -262128, 65539, 0, -196592, 65539, 0, -131056, 65539, 0, -65520, 65539, 0, 16, 65539, 0, -1966063, 65539, 0, -1900527, 65539, 0, -1834991, 65539, 0, -1769455, 65539, 0, -1703919, 65539, 0, -1638383, 65539, 0, -1572847, 65539, 0, -1507311, 65539, 0, -1441775, 65539, 0, -1376239, 65539, 0, -1310703, 65539, 0, -1245167, 65539, 0, -1179631, 65539, 0, -1114095, 65539, 0, -1048559, 65539, 0, -983023, 65539, 0, -917487, 65539, 0, -851951, 65539, 0, -786415, 65539, 0, -720879, 65539, 0, -655343, 65539, 0, -589807, 65539, 0, -524271, 65539, 0, -458735, 65539, 0, -393199, 65539, 0, -327663, 65539, 0, -262127, 65539, 0, -196591, 65539, 0, -131055, 65539, 0, -65519, 65539, 0, 17, 65539, 0, -1966062, 65539, 0, -1900526, 65539, 0, -1834990, 65539, 0, -1769454, 65539, 0, -1703918, 65539, 0, -1638382, 65539, 0, -1572846, 65539, 0, -1507310, 65539, 0, -1441774, 65539, 0, -1376238, 65539, 0, -1310702, 65539, 0, -1245166, 65539, 0, -1179630, 65539, 0, -1114094, 65539, 0, -1048558, 65539, 0, -983022, 65539, 0, -917486, 65539, 0, -851950, 65539, 0, -786414, 65539, 0, -720878, 65539, 0, -655342, 65539, 0, -589806, 65539, 0, -524270, 65539, 0, -458734, 65539, 0, -393198, 65539, 0, -327662, 65539, 0, -262126, 65539, 0, -196590, 65539, 0, -131054, 65539, 0, -65518, 65539, 0, 18, 65539, 0, -1966061, 65539, 0, -1900525, 65539, 0, -1834989, 65539, 0, -1769453, 65539, 0, -1703917, 65539, 0, -1638381, 65539, 0, -1572845, 65539, 0, -1507309, 65539, 0, -1441773, 65539, 0, -1376237, 65539, 0, -1310701, 65539, 0, -1245165, 65539, 0, -1179629, 65539, 0, -1114093, 65539, 0, -1048557, 65539, 0, -983021, 65539, 0, -917485, 65539, 0, -851949, 65539, 0, -786413, 65539, 0, -720877, 65539, 0, -655341, 65539, 0, -589805, 65539, 0, -524269, 65539, 0, -458733, 65539, 0, -393197, 65539, 0, -327661, 65539, 0, -262125, 65539, 0, -196589, 65539, 0, -131053, 65539, 0, -65517, 65539, 0, 19, 65539, 0, -1966060, 65539, 0, -1900524, 65539, 0, -1834988, 65539, 0, -1769452, 65539, 0, -1703916, 65539, 0, -1638380, 65539, 0, -1572844, 65539, 0, -1507308, 65539, 0, -1441772, 65539, 0, -1376236, 65539, 0, -1310700, 65539, 0, -1245164, 65539, 0, -1179628, 65539, 0, -1114092, 65539, 0, -1048556, 65539, 0, -983020, 65539, 0, -917484, 65539, 0, -851948, 65539, 0, -786412, 65539, 0, -720876, 65539, 0, -655340, 65539, 0, -589804, 65539, 0, -524268, 65539, 0, -458732, 65539, 0, -393196, 65539, 0, -327660, 65539, 0, -262124, 65539, 0, -196588, 65539, 0, -131052, 65539, 0, -65516, 65539, 0, 20, 65539, 0, -1966059, 65539, 0, -1900523, 65539, 0, -1834987, 65539, 0, -1769451, 65539, 0, -1703915, 65539, 0, -1638379, 65539, 0, -1572843, 65539, 0, -1507307, 65539, 0, -1441771, 65539, 0, -1376235, 65539, 0, -1310699, 65539, 0, -1245163, 65539, 0, -1179627, 65539, 0, -1114091, 65539, 0, -1048555, 65539, 0, -983019, 65539, 0, -917483, 65539, 0, -851947, 65539, 0, -786411, 65539, 0, -720875, 65539, 0, -655339, 65539, 0, -589803, 65539, 0, -524267, 65539, 0, -458731, 65539, 0, -393195, 65539, 0, -327659, 65539, 0, -262123, 65539, 0, -196587, 65539, 0, -131051, 65539, 0, -65515, 65539, 0, 21, 65539, 0, -1966058, 65539, 0, -1900522, 65539, 0, -1834986, 65539, 0, -1769450, 65539, 0, -1703914, 65539, 0, -1638378, 65539, 0, -1572842, 65539, 0, -1507306, 65539, 0, -1441770, 65539, 0, -1376234, 65539, 0, -1310698, 65539, 0, -1245162, 65539, 0, -1179626, 65539, 0, -1114090, 65539, 0, -1048554, 65539, 0, -983018, 65539, 0, -917482, 65539, 0, -851946, 65539, 0, -786410, 65539, 0, -720874, 65539, 0, -655338, 65539, 0, -589802, 65539, 0, -524266, 65539, 0, -458730, 65539, 0, -393194, 65539, 0, -327658, 65539, 0, -262122, 65539, 0, -196586, 65539, 0, -131050, 65539, 0, -65514, 65539, 0, 22, 65539, 0, -1966057, 65539, 0, -1900521, 65539, 0, -1834985, 65539, 0, -1769449, 65539, 0, -1703913, 65539, 0, -1638377, 65539, 0, -1572841, 65539, 0, -1507305, 65539, 0, -1441769, 65539, 0, -1376233, 65539, 0, -1310697, 65539, 0, -1245161, 65539, 0, -1179625, 65539, 0, -1114089, 65539, 0, -1048553, 65539, 0, -983017, 65539, 0, -917481, 65539, 0, -851945, 65539, 0, -786409, 65539, 0, -720873, 65539, 0, -655337, 65539, 0, -589801, 65539, 0, -524265, 65539, 0, -458729, 65539, 0, -393193, 65539, 0, -327657, 65539, 0, -262121, 65539, 0, -196585, 65539, 0, -131049, 65539, 0, -65513, 65539, 0, 23, 65539, 0, -1966056, 65539, 0, -1900520, 65539, 0, -1834984, 65539, 0, -1769448, 65539, 0, -1703912, 65539, 0, -1638376, 65539, 0, -1572840, 65539, 0, -1507304, 65539, 0, -1441768, 65539, 0, -1376232, 65539, 0, -1310696, 65539, 0, -1245160, 65539, 0, -1179624, 65539, 0, -1114088, 65539, 0, -1048552, 65539, 0, -983016, 65539, 0, -917480, 65539, 0, -851944, 65539, 0, -786408, 65539, 0, -720872, 65539, 0, -655336, 65539, 0, -589800, 65539, 0, -524264, 65539, 0, -458728, 65539, 0, -393192, 65539, 0, -327656, 65539, 0, -262120, 65539, 0, -196584, 65539, 0, -131048, 65539, 0, -65512, 65539, 0, 24, 65539, 0, -1966055, 65539, 0, -1900519, 65539, 0, -1834983, 65539, 0, -1769447, 65539, 0, -1703911, 65539, 0, -1638375, 65539, 0, -1572839, 65539, 0, -1507303, 65539, 0, -1441767, 65539, 0, -1376231, 65539, 0, -1310695, 65539, 0, -1245159, 65539, 0, -1179623, 65539, 0, -1114087, 65539, 0, -1048551, 65539, 0, -983015, 65539, 0, -917479, 65539, 0, -851943, 65539, 0, -786407, 65539, 0, -720871, 65539, 0, -655335, 65539, 0, -589799, 65539, 0, -524263, 65539, 0, -458727, 65539, 0, -393191, 65539, 0, -327655, 65539, 0, -262119, 65539, 0, -196583, 65539, 0, -131047, 65539, 0, -65511, 65539, 0, 25, 65539, 0, -1966054, 65539, 0, -1900518, 65539, 0, -1834982, 65539, 0, -1769446, 65539, 0, -1703910, 65539, 0, -1638374, 65539, 0, -1572838, 65539, 0, -1507302, 65539, 0, -1441766, 65539, 0, -1376230, 65539, 0, -1310694, 65539, 0, -1245158, 65539, 0, -1179622, 65539, 0, -1114086, 65539, 0, -1048550, 65539, 0, -983014, 65539, 0, -917478, 65539, 0, -851942, 65539, 0, -786406, 65539, 0, -720870, 65539, 0, -655334, 65539, 0, -589798, 65539, 0, -524262, 65539, 0, -458726, 65539, 0, -393190, 65539, 0, -327654, 65539, 0, -262118, 65539, 0, -196582, 65539, 0, -131046, 65539, 0, -65510, 65539, 0, 26, 65539, 0, -1966053, 65539, 0, -1900517, 65539, 0, -1834981, 65539, 0, -1769445, 65539, 0, -1703909, 65539, 0, -1638373, 65539, 0, -1572837, 65539, 0, -1507301, 65539, 0, -1441765, 65539, 0, -1376229, 65539, 0, -1310693, 65539, 0, -1245157, 65539, 0, -1179621, 65539, 0, -1114085, 65539, 0, -1048549, 65539, 0, -983013, 65539, 0, -917477, 65539, 0, -851941, 65539, 0, -786405, 65539, 0, -720869, 65539, 0, -655333, 65539, 0, -589797, 65539, 0, -524261, 65539, 0, -458725, 65539, 0, -393189, 65539, 0, -327653, 65539, 0, -262117, 65539, 0, -196581, 65539, 0, -131045, 65539, 0, -65509, 65539, 0, 27, 65539, 0, -1966052, 65539, 0, -1900516, 65539, 0, -1834980, 65539, 0, -1769444, 65539, 0, -1703908, 65539, 0, -1638372, 65539, 0, -1572836, 65539, 0, -1507300, 65539, 0, -1441764, 65539, 0, -1376228, 65539, 0, -1310692, 65539, 0, -1245156, 65539, 0, -1179620, 65539, 0, -1114084, 65539, 0, -1048548, 65539, 0, -983012, 65539, 0, -917476, 65539, 0, -851940, 65539, 0, -786404, 65539, 0, -720868, 65539, 0, -655332, 65539, 0, -589796, 65539, 0, -524260, 65539, 0, -458724, 65539, 0, -393188, 65539, 0, -327652, 65539, 0, -262116, 65539, 0, -196580, 65539, 0, -131044, 65539, 0, -65508, 65539, 0, 28, 65539, 0, -1966051, 65539, 0, -1900515, 65539, 0, -1834979, 65539, 0, -1769443, 65539, 0, -1703907, 65539, 0, -1638371, 65539, 0, -1572835, 65539, 0, -1507299, 65539, 0, -1441763, 65539, 0, -1376227, 65539, 0, -1310691, 65539, 0, -1245155, 65539, 0, -1179619, 65539, 0, -1114083, 65539, 0, -1048547, 65539, 0, -983011, 65539, 0, -917475, 65539, 0, -851939, 65539, 0, -786403, 65539, 0, -720867, 65539, 0, -655331, 65539, 0, -589795, 65539, 0, -524259, 65539, 0, -458723, 65539, 0, -393187, 65539, 0, -327651, 65539, 0, -262115, 65539, 0, -196579, 65539, 0, -131043, 65539, 0, -65507, 65539, 0, 29, 65539, 0, -1966050, 65539, 0, -1900514, 65539, 0, -1834978, 65539, 0, -1769442, 65539, 0, -1703906, 65539, 0, -1638370, 65539, 0, -1572834, 65539, 0, -1507298, 65539, 0, -1441762, 65539, 0, -1376226, 65539, 0, -1310690, 65539, 0, -1245154, 65539, 0, -1179618, 65539, 0, -1114082, 65539, 0, -1048546, 65539, 0, -983010, 65539, 0, -917474, 65539, 0, -851938, 65539, 0, -786402, 65539, 0, -720866, 65539, 0, -655330, 65539, 0, -589794, 65539, 0, -524258, 65539, 0, -458722, 65539, 0, -393186, 65539, 0, -327650, 65539, 0, -262114, 65539, 0, -196578, 65539, 0, -131042, 65539, 0, -65506, 65539, 0, 30, 65539, 0, -1966049, 65539, 0, -1900513, 65539, 0, -1834977, 65539, 0, -1769441, 65539, 0, -1703905, 65539, 0, -1638369, 65539, 0, -1572833, 65539, 0, -1507297, 65539, 0, -1441761, 65539, 0, -1376225, 65539, 0, -1310689, 65539, 0, -1245153, 65539, 0, -1179617, 65539, 0, -1114081, 65539, 0, -1048545, 65539, 0, -983009, 65539, 0, -917473, 65539, 0, -851937, 65539, 0, -786401, 65539, 0, -720865, 65539, 0, -655329, 65539, 0, -589793, 65539, 0, -524257, 65539, 0, -458721, 65539, 0, -393185, 65539, 0, -327649, 65539, 0, -262113, 65539, 0, -196577, 65539, 0, -131041, 65539, 0, -65505, 65539, 0, 31, 65539, 0, -1966048, 65539, 0, -1900512, 65539, 0, -1834976, 65539, 0, -1769440, 65539, 0, -1703904, 65539, 0, -1638368, 65539, 0, -1572832, 65539, 0, -1507296, 65539, 0, -1441760, 65539, 0, -1376224, 65539, 0, -1310688, 65539, 0, -1245152, 65539, 0, -1179616, 65539, 0, -1114080, 65539, 0, -1048544, 65539, 0, -983008, 65539, 0, -917472, 65539, 0, -851936, 65539, 0, -786400, 65539, 0, -720864, 65539, 0, -655328, 65539, 0, -589792, 65539, 0, -524256, 65539, 0, -458720, 65539, 0, -393184, 65539, 0, -327648, 65539, 0, -262112, 65539, 0, -196576, 65539, 0, -131040, 65539, 0, -65504, 65539, 0, 32, 65539, 0, -1966047, 65539, 0, -1900511, 65539, 0, -1834975, 65539, 0, -1769439, 65539, 0, -1703903, 65539, 0, -1638367, 65539, 0, -1572831, 65539, 0, -1507295, 65539, 0, -1441759, 65539, 0, -1376223, 65539, 0, -1310687, 65539, 0, -1245151, 65539, 0, -1179615, 65539, 0, -1114079, 65539, 0, -1048543, 65539, 0, -983007, 65539, 0, -917471, 65539, 0, -851935, 65539, 0, -786399, 65539, 0, -720863, 65539, 0, -655327, 65539, 0, -589791, 65539, 0, -524255, 65539, 0, -458719, 65539, 0, -393183, 65539, 0, -327647, 65539, 0, -262111, 65539, 0, -196575, 65539, 0, -131039, 65539, 0, -65503, 65539, 0, 33, 65539, 0, -1966046, 65539, 0, -1900510, 65539, 0, -1834974, 65539, 0, -1769438, 65539, 0, -1703902, 65539, 0, -1638366, 65539, 0, -1572830, 65539, 0, -1507294, 65539, 0, -1441758, 65539, 0, -1376222, 65539, 0, -1310686, 65539, 0, -1245150, 65539, 0, -1179614, 65539, 0, -1114078, 65539, 0, -1048542, 65539, 0, -983006, 65539, 0, -917470, 65539, 0, -851934, 65539, 0, -786398, 65539, 0, -720862, 65539, 0, -655326, 65539, 0, -589790, 65539, 0, -524254, 65539, 0, -458718, 65539, 0, -393182, 65539, 0, -327646, 65539, 0, -262110, 65539, 0, -196574, 65539, 0, -131038, 65539, 0, -65502, 65539, 0, 34, 65539, 0, -1966045, 65539, 0, -1900509, 65539, 0, -1834973, 65539, 0, -1769437, 65539, 0, -1703901, 65539, 0, -1638365, 65539, 0, -1572829, 65539, 0, -1507293, 65539, 0, -1441757, 65539, 0, -1376221, 65539, 0, -1310685, 65539, 0, -1245149, 65539, 0, -1179613, 65539, 0, -1114077, 65539, 0, -1048541, 65539, 0, -983005, 65539, 0, -917469, 65539, 0, -851933, 65539, 0, -786397, 65539, 0, -720861, 65539, 0, -655325, 65539, 0, -589789, 65539, 0, -524253, 65539, 0, -458717, 65539, 0, -393181, 65539, 0, -327645, 65539, 0, -262109, 65539, 0, -196573, 65539, 0, -131037, 65539, 0, -65501, 65539, 0, 35, 65539, 0, -1966044, 65539, 0, -1900508, 65539, 0, -1834972, 65539, 0, -1769436, 65539, 0, -1703900, 65539, 0, -1638364, 65539, 0, -1572828, 65539, 0, -1507292, 65539, 0, -1441756, 65539, 0, -1376220, 65539, 0, -1310684, 65539, 0, -1245148, 65539, 0, -1179612, 65539, 0, -1114076, 65539, 0, -1048540, 65539, 0, -983004, 65539, 0, -917468, 65539, 0, -851932, 65539, 0, -786396, 65539, 0, -720860, 65539, 0, -655324, 65539, 0, -589788, 65539, 0, -524252, 65539, 0, -458716, 65539, 0, -393180, 65539, 0, -327644, 65539, 0, -262108, 65539, 0, -196572, 65539, 0, -131036, 65539, 0, -65500, 65539, 0, 36, 65539, 0, -1966043, 65539, 0, -1900507, 65539, 0, -1834971, 65539, 0, -1769435, 65539, 0, -1703899, 65539, 0, -1638363, 65539, 0, -1572827, 65539, 0, -1507291, 65539, 0, -1441755, 65539, 0, -1376219, 65539, 0, -1310683, 65539, 0, -1245147, 65539, 0, -1179611, 65539, 0, -1114075, 65539, 0, -1048539, 65539, 0, -983003, 65539, 0, -917467, 65539, 0, -851931, 65539, 0, -786395, 65539, 0, -720859, 65539, 0, -655323, 65539, 0, -589787, 65539, 0, -524251, 65539, 0, -458715, 65539, 0, -393179, 65539, 0, -327643, 65539, 0, -262107, 65539, 0, -196571, 65539, 0, -131035, 65539, 0, -65499, 65539, 0, 37, 65539, 0, -1966042, 65539, 0, -1900506, 65539, 0, -1834970, 65539, 0, -1769434, 65539, 0, -1703898, 65539, 0, -1638362, 65539, 0, -1572826, 65539, 0, -1507290, 65539, 0, -1441754, 65539, 0, -1376218, 65539, 0, -1310682, 65539, 0, -1245146, 65539, 0, -1179610, 65539, 0, -1114074, 65539, 0, -1048538, 65539, 0, -983002, 65539, 0, -917466, 65539, 0, -851930, 65539, 0, -786394, 65539, 0, -720858, 65539, 0, -655322, 65539, 0, -589786, 65539, 0, -524250, 65539, 0, -458714, 65539, 0, -393178, 65539, 0, -327642, 65539, 0, -262106, 65539, 0, -196570, 65539, 0, -131034, 65539, 0, -65498, 65539, 0, 38, 65539, 0, -1966041, 65539, 0, -1900505, 65539, 0, -1834969, 65539, 0, -1769433, 65539, 0, -1703897, 65539, 0, -1638361, 65539, 0, -1572825, 65539, 0, -1507289, 65539, 0, -1441753, 65539, 0, -1376217, 65539, 0, -1310681, 65539, 0, -1245145, 65539, 0, -1179609, 65539, 0, -1114073, 65539, 0, -1048537, 65539, 0, -983001, 65539, 0, -917465, 65539, 0, -851929, 65539, 0, -786393, 65539, 0, -720857, 65539, 0, -655321, 65539, 0, -589785, 65539, 0, -524249, 65539, 0, -458713, 65539, 0, -393177, 65539, 0, -327641, 65539, 0, -262105, 65539, 0, -196569, 65539, 0, -131033, 65539, 0, -65497, 65539, 0, 39, 65539, 0, -1966040, 65539, 0, -1900504, 65539, 0, -1834968, 65539, 0, -1769432, 65539, 0, -1703896, 65539, 0, -1638360, 65539, 0, -1572824, 65539, 0, -1507288, 65539, 0, -1441752, 65539, 0, -1376216, 65539, 0, -1310680, 65539, 0, -1245144, 65539, 0, -1179608, 65539, 0, -1114072, 65539, 0, -1048536, 65539, 0, -983000, 65539, 0, -917464, 65539, 0, -851928, 65539, 0, -786392, 65539, 0, -720856, 65539, 0, -655320, 65539, 0, -589784, 65539, 0, -524248, 65539, 0, -458712, 65539, 0, -393176, 65539, 0, -327640, 65539, 0, -262104, 65539, 0, -196568, 65539, 0, -131032, 65539, 0, -65496, 65539, 0, 40, 65539, 0, -1966039, 65539, 0, -1900503, 65539, 0, -1834967, 65539, 0, -1769431, 65539, 0, -1703895, 65539, 0, -1638359, 65539, 0, -1572823, 65539, 0, -1507287, 65539, 0, -1441751, 65539, 0, -1376215, 65539, 0, -1310679, 65539, 0, -1245143, 65539, 0, -1179607, 65539, 0, -1114071, 65539, 0, -1048535, 65539, 0, -982999, 65539, 0, -917463, 65539, 0, -851927, 65539, 0, -786391, 65539, 0, -720855, 65539, 0, -655319, 65539, 0, -589783, 65539, 0, -524247, 65539, 0, -458711, 65539, 0, -393175, 65539, 0, -327639, 65539, 0, -262103, 65539, 0, -196567, 65539, 0, -131031, 65539, 0, -65495, 65539, 0, 41, 65539, 0, -1966038, 65539, 0, -1900502, 65539, 0, -1834966, 65539, 0, -1769430, 65539, 0, -1703894, 65539, 0, -1638358, 65539, 0, -1572822, 65539, 0, -1507286, 65539, 0, -1441750, 65539, 0, -1376214, 65539, 0, -1310678, 65539, 0, -1245142, 65539, 0, -1179606, 65539, 0, -1114070, 65539, 0, -1048534, 65539, 0, -982998, 65539, 0, -917462, 65539, 0, -851926, 65539, 0, -786390, 65539, 0, -720854, 65539, 0, -655318, 65539, 0, -589782, 65539, 0, -524246, 65539, 0, -458710, 65539, 0, -393174, 65539, 0, -327638, 65539, 0, -262102, 65539, 0, -196566, 65539, 0, -131030, 65539, 0, -65494, 65539, 0, 42, 65539, 0, -1966037, 65539, 0, -1900501, 65539, 0, -1834965, 65539, 0, -1769429, 65539, 0, -1703893, 65539, 0, -1638357, 65539, 0, -1572821, 65539, 0, -1507285, 65539, 0, -1441749, 65539, 0, -1376213, 65539, 0, -1310677, 65539, 0, -1245141, 65539, 0, -1179605, 65539, 0, -1114069, 65539, 0, -1048533, 65539, 0, -982997, 65539, 0, -917461, 65539, 0, -851925, 65539, 0, -786389, 65539, 0, -720853, 65539, 0, -655317, 65539, 0, -589781, 65539, 0, -524245, 65539, 0, -458709, 65539, 0, -393173, 65539, 0, -327637, 65539, 0, -262101, 65539, 0, -196565, 65539, 0, -131029, 65539, 0, -65493, 65539, 0, 43, 65539, 0, -1966036, 65539, 0, -1900500, 65539, 0, -1834964, 65539, 0, -1769428, 65539, 0, -1703892, 65539, 0, -1638356, 65539, 0, -1572820, 65539, 0, -1507284, 65539, 0, -1441748, 65539, 0, -1376212, 65539, 0, -1310676, 65539, 0, -1245140, 65539, 0, -1179604, 65539, 0, -1114068, 65539, 0, -1048532, 65539, 0, -982996, 65539, 0, -917460, 65539, 0, -851924, 65539, 0, -786388, 65539, 0, -720852, 65539, 0, -655316, 65539, 0, -589780, 65539, 0, -524244, 65539, 0, -458708, 65539, 0, -393172, 65539, 0, -327636, 65539, 0, -262100, 65539, 0, -196564, 65539, 0, -131028, 65539, 0, -65492, 65539, 0, 44, 65539, 0, -1966035, 65539, 0, -1900499, 65539, 0, -1834963, 65539, 0, -1769427, 65539, 0, -1703891, 65539, 0, -1638355, 65539, 0, -1572819, 65539, 0, -1507283, 65539, 0, -1441747, 65539, 0, -1376211, 65539, 0, -1310675, 65539, 0, -1245139, 65539, 0, -1179603, 65539, 0, -1114067, 65539, 0, -1048531, 65539, 0, -982995, 65539, 0, -917459, 65539, 0, -851923, 65539, 0, -786387, 65539, 0, -720851, 65539, 0, -655315, 65539, 0, -589779, 65539, 0, -524243, 65539, 0, -458707, 65539, 0, -393171, 65539, 0, -327635, 65539, 0, -262099, 65539, 0, -196563, 65539, 0, -131027, 65539, 0, -65491, 65539, 0, 45, 65539, 0, -1966034, 65539, 0, -1900498, 65539, 0, -1834962, 65539, 0, -1769426, 65539, 0, -1703890, 65539, 0, -1638354, 65539, 0, -1572818, 65539, 0, -1507282, 65539, 0, -1441746, 65539, 0, -1376210, 65539, 0, -1310674, 65539, 0, -1245138, 65539, 0, -1179602, 65539, 0, -1114066, 65539, 0, -1048530, 65539, 0, -982994, 65539, 0, -917458, 65539, 0, -851922, 65539, 0, -786386, 65539, 0, -720850, 65539, 0, -655314, 65539, 0, -589778, 65539, 0, -524242, 65539, 0, -458706, 65539, 0, -393170, 65539, 0, -327634, 65539, 0, -262098, 65539, 0, -196562, 65539, 0, -131026, 65539, 0, -65490, 65539, 0, 46, 65539, 0, -1966033, 65539, 0, -1900497, 65539, 0, -1834961, 65539, 0, -1769425, 65539, 0, -1703889, 65539, 0, -1638353, 65539, 0, -1572817, 65539, 0, -1507281, 65539, 0, -1441745, 65539, 0, -1376209, 65539, 0, -1310673, 65539, 0, -1245137, 65539, 0, -1179601, 65539, 0, -1114065, 65539, 0, -1048529, 65539, 0, -982993, 65539, 0, -917457, 65539, 0, -851921, 65539, 0, -786385, 65539, 0, -720849, 65539, 0, -655313, 65539, 0, -589777, 65539, 0, -524241, 65539, 0, -458705, 65539, 0, -393169, 65539, 0, -327633, 65539, 0, -262097, 65539, 0, -196561, 65539, 0, -131025, 65539, 0, -65489, 65539, 0, 47, 65539, 0, -1966032, 65539, 0, -1900496, 65539, 0, -1834960, 65539, 0, -1769424, 65539, 0, -1703888, 65539, 0, -1638352, 65539, 0, -1572816, 65539, 0, -1507280, 65539, 0, -1441744, 65539, 0, -1376208, 65539, 0, -1310672, 65539, 0, -1245136, 65539, 0, -1179600, 65539, 0, -1114064, 65539, 0, -1048528, 65539, 0, -982992, 65539, 0, -917456, 65539, 0, -851920, 65539, 0, -786384, 65539, 0, -720848, 65539, 0, -655312, 65539, 0, -589776, 65539, 0, -524240, 65539, 0, -458704, 65539, 0, -393168, 65539, 0, -327632, 65539, 0, -262096, 65539, 0, -196560, 65539, 0, -131024, 65539, 0, -65488, 65539, 0, 48, 65539, 0, -1966031, 65539, 0, -1900495, 65539, 0, -1834959, 65539, 0, -1769423, 65539, 0, -1703887, 65539, 0, -1638351, 65539, 0, -1572815, 65539, 0, -1507279, 65539, 0, -1441743, 65539, 0, -1376207, 65539, 0, -1310671, 65539, 0, -1245135, 65539, 0, -1179599, 65539, 0, -1114063, 65539, 0, -1048527, 65539, 0, -982991, 65539, 0, -917455, 65539, 0, -851919, 65539, 0, -786383, 65539, 0, -720847, 65539, 0, -655311, 65539, 0, -589775, 65539, 0, -524239, 65539, 0, -458703, 65539, 0, -393167, 65539, 0, -327631, 65539, 0, -262095, 65539, 0, -196559, 65539, 0, -131023, 65539, 0, -65487, 65539, 0, 49, 65539, 0, -1966030, 65539, 0, -1900494, 65539, 0, -1834958, 65539, 0, -1769422, 65539, 0, -1703886, 65539, 0, -1638350, 65539, 0, -1572814, 65539, 0, -1507278, 65539, 0, -1441742, 65539, 0, -1376206, 65539, 0, -1310670, 65539, 0, -1245134, 65539, 0, -1179598, 65539, 0, -1114062, 65539, 0, -1048526, 65539, 0, -982990, 65539, 0, -917454, 65539, 0, -851918, 65539, 0, -786382, 65539, 0, -720846, 65539, 0, -655310, 65539, 0, -589774, 65539, 0, -524238, 65539, 0, -458702, 65539, 0, -393166, 65539, 0, -327630, 65539, 0, -262094, 65539, 0, -196558, 65539, 0, -131022, 65539, 0, -65486, 65539, 0, 50, 65539, 0, -1966029, 65539, 0, -1900493, 65539, 0, -1834957, 65539, 0, -1769421, 65539, 0, -1703885, 65539, 0, -1638349, 65539, 0, -1572813, 65539, 0, -1507277, 65539, 0, -1441741, 65539, 0, -1376205, 65539, 0, -1310669, 65539, 0, -1245133, 65539, 0, -1179597, 65539, 0, -1114061, 65539, 0, -1048525, 65539, 0, -982989, 65539, 0, -917453, 65539, 0, -851917, 65539, 0, -786381, 65539, 0, -720845, 65539, 0, -655309, 65539, 0, -589773, 65539, 0, -524237, 65539, 0, -458701, 65539, 0, -393165, 65539, 0, -327629, 65539, 0, -262093, 65539, 0, -196557, 65539, 0, -131021, 65539, 0, -65485, 65539, 0, 51, 65539, 0, -1966028, 65539, 0, -1900492, 65539, 0, -1834956, 65539, 0, -1769420, 65539, 0, -1703884, 65539, 0, -1638348, 65539, 0, -1572812, 65539, 0, -1507276, 65539, 0, -1441740, 65539, 0, -1376204, 65539, 0, -1310668, 65539, 0, -1245132, 65539, 0, -1179596, 65539, 0, -1114060, 65539, 0, -1048524, 65539, 0, -982988, 65539, 0, -917452, 65539, 0, -851916, 65539, 0, -786380, 65539, 0, -720844, 65539, 0, -655308, 65539, 0, -589772, 65539, 0, -524236, 65539, 0, -458700, 65539, 0, -393164, 65539, 0, -327628, 65539, 0, -262092, 65539, 0, -196556, 65539, 0, -131020, 65539, 0, -65484, 65539, 0, 52, 65539, 0, -1966027, 65539, 0, -1900491, 65539, 0, -1834955, 65539, 0, -1769419, 65539, 0, -1703883, 65539, 0, -1638347, 65539, 0, -1572811, 65539, 0, -1507275, 65539, 0, -1441739, 65539, 0, -1376203, 65539, 0, -1310667, 65539, 0, -1245131, 65539, 0, -1179595, 65539, 0, -1114059, 65539, 0, -1048523, 65539, 0, -982987, 65539, 0, -917451, 65539, 0, -851915, 65539, 0, -786379, 65539, 0, -720843, 65539, 0, -655307, 65539, 0, -589771, 65539, 0, -524235, 65539, 0, -458699, 65539, 0, -393163, 65539, 0, -327627, 65539, 0, -262091, 65539, 0, -196555, 65539, 0, -131019, 65539, 0, -65483, 65539, 0, 53, 65539, 0, -1966080, 65539, 0, -1900544, 65539, 0, -1835008, 65539, 0, -1769472, 65539, 0, -1703936, 65539, 0, -1638400, 65539, 0, -1572864, 65539, 0, -1507328, 65539, 0, -1441792, 65539, 0, -1376256, 65539, 0, -1310720, 65539, 0, -1245184, 65539, 0, -1179648, 65539, 0, -1114112, 65539, 0, -1048576, 65539, 0, -983040, 65539, 0, -917504, 65539, 0, -851968, 65539, 0, -786432, 65539, 0, -720896, 65539, 0, -655360, 65539, 0, -589824, 65539, 0, -524288, 65539, 0, -458752, 65539, 0, -393216, 65539, 0, -327680, 65539, 0, -262144, 65539, 0, -196608, 65539, 0, -131072, 65539, 0, -65536, 65539, 0, 0, 65539, 0)

[node name="TileMapBackground" parent="." index="2"]
layer_0/tile_data = PackedInt32Array(-65517, 2, 0, -65534, 2, 0)

[node name="Enemy" parent="CanPosses" index="0" instance=ExtResource("3_xc3ky")]
position = Vector2(243, -5)

[node name="Camera2D" parent="." index="4"]
zoom = Vector2(4, 4)

[node name="Player" parent="." index="9" node_paths=PackedStringArray("path") instance=ExtResource("2_hic1q")]
position = Vector2(20, -4)
path = NodePath("../Path2D")

[node name="Path2D" type="Path2D" parent="." index="10"]
curve = SubResource("Curve2D_u6rgx")

[node name="Goal" parent="." index="11" instance=ExtResource("4_ksukj")]
position = Vector2(290, -9)

[node name="EnemyTutorial" parent="." index="12" instance=ExtResource("5_jy18p")]
position = Vector2(122, -21)

[node name="Coin" parent="." index="13" instance=ExtResource("6_jr4qv")]
position = Vector2(258, -94)

[node name="MovementTutorial" parent="." index="14" instance=ExtResource("7_v6qpi")]
position = Vector2(134, -80)
