[gd_scene load_steps=19 format=3 uid="uid://bxx2v4vvtfvtc"]

[ext_resource type="Script" path="res://Levels/Level.gd" id="1_xrq0a"]
[ext_resource type="Texture2D" uid="uid://bow4u1mcm0ycs" path="res://Tilemap/Tilemap.png" id="2_g55qk"]
[ext_resource type="Texture2D" uid="uid://p6dcav2qyytw" path="res://Tilemap/TilemapBackground.png" id="2_wd1ce"]
[ext_resource type="PackedScene" uid="uid://coeuqjbqonop8" path="res://Camera/Camera.tscn" id="4_jnl4y"]
[ext_resource type="Texture2D" uid="uid://bxsqlsioopnh4" path="res://light.png" id="6_m75fx"]
[ext_resource type="Script" path="res://Levels/CursorLight.gd" id="7_udsi3"]
[ext_resource type="Script" path="res://Levels/DeathZone.gd" id="8_28wvf"]
[ext_resource type="PackedScene" uid="uid://c2vuagug7dasc" path="res://BackgroundDim/BackgroundDim.tscn" id="9_v28c6"]
[ext_resource type="PackedScene" uid="uid://8ogunkvtw0bt" path="res://RestartReminder/RestartReminder.tscn" id="10_4sh11"]
[ext_resource type="PackedScene" uid="uid://d0rr5go74rsws" path="res://LevelComplete/LevelComplete.tscn" id="11_lrfxw"]

[sub_resource type="OccluderPolygon2D" id="OccluderPolygon2D_vrutn"]

[sub_resource type="OccluderPolygon2D" id="OccluderPolygon2D_ia0l5"]
polygon = PackedVector2Array(-4, -4, 4, -4, 4, 4, -4, 4)

[sub_resource type="OccluderPolygon2D" id="OccluderPolygon2D_y486b"]
polygon = PackedVector2Array(-4, -4, 4, -4, 4, 4, -4, 4)

[sub_resource type="TileSetAtlasSource" id="TileSetAtlasSource_qy1ad"]
texture = ExtResource("2_g55qk")
texture_region_size = Vector2i(8, 8)
0:0/0 = 0
0:0/0/occlusion_layer_0/polygon = SubResource("OccluderPolygon2D_vrutn")
0:0/0/physics_layer_0/linear_velocity = Vector2(0, 0)
0:0/0/physics_layer_0/angular_velocity = 0.0
0:0/0/physics_layer_0/polygon_0/points = PackedVector2Array(-4, -4, 4, -4, 4, 4, -4, 4)
2:0/0 = 0
2:0/0/physics_layer_0/linear_velocity = Vector2(0, 0)
2:0/0/physics_layer_0/angular_velocity = 0.0
3:0/0 = 0
3:0/0/physics_layer_0/linear_velocity = Vector2(0, 0)
3:0/0/physics_layer_0/angular_velocity = 0.0
1:0/0 = 0
1:0/0/physics_layer_0/linear_velocity = Vector2(0, 0)
1:0/0/physics_layer_0/angular_velocity = 0.0
0:1/0 = 0
0:1/0/occlusion_layer_0/polygon = SubResource("OccluderPolygon2D_ia0l5")
0:1/0/physics_layer_0/linear_velocity = Vector2(0, 0)
0:1/0/physics_layer_0/angular_velocity = 0.0
0:1/0/physics_layer_0/polygon_0/points = PackedVector2Array(-4, -4, 4, -4, 4, 4, -4, 4)
0:2/0 = 0
0:2/0/occlusion_layer_0/polygon = SubResource("OccluderPolygon2D_y486b")
0:2/0/physics_layer_0/linear_velocity = Vector2(0, 0)
0:2/0/physics_layer_0/angular_velocity = 0.0
1:1/0 = 0
1:1/0/physics_layer_0/linear_velocity = Vector2(0, 0)
1:1/0/physics_layer_0/angular_velocity = 0.0
1:2/0 = 0
1:2/0/physics_layer_0/linear_velocity = Vector2(0, 0)
1:2/0/physics_layer_0/angular_velocity = 0.0
1:2/0/physics_layer_0/polygon_0/points = PackedVector2Array(4, -4, 4, 4, -4, 4)
2:2/0 = 0
2:2/0/physics_layer_0/linear_velocity = Vector2(0, 0)
2:2/0/physics_layer_0/angular_velocity = 0.0
2:2/0/physics_layer_0/polygon_0/points = PackedVector2Array(-4, -4, 4, -4, 4, 4, -4, 4)
3:2/0 = 0
3:2/0/physics_layer_0/linear_velocity = Vector2(0, 0)
3:2/0/physics_layer_0/angular_velocity = 0.0
3:2/0/physics_layer_0/polygon_0/points = PackedVector2Array(-4, 4, 4, 4, -4, -4)
3:3/0 = 0
3:3/0/physics_layer_0/linear_velocity = Vector2(0, 0)
3:3/0/physics_layer_0/angular_velocity = 0.0
3:3/0/physics_layer_0/polygon_0/points = PackedVector2Array(-4, -4, 4, -4, 4, 4, -4, 4)
3:4/0 = 0
3:4/0/physics_layer_0/linear_velocity = Vector2(0, 0)
3:4/0/physics_layer_0/angular_velocity = 0.0
3:4/0/physics_layer_0/polygon_0/points = PackedVector2Array(4.5, -4, -4, 4.5, -4, -4)
2:4/0 = 0
2:4/0/physics_layer_0/linear_velocity = Vector2(0, 0)
2:4/0/physics_layer_0/angular_velocity = 0.0
2:4/0/physics_layer_0/polygon_0/points = PackedVector2Array(-4, -4, 4, -4, 4, 4, -4, 4)
2:3/0 = 0
2:3/0/physics_layer_0/linear_velocity = Vector2(0, 0)
2:3/0/physics_layer_0/angular_velocity = 0.0
2:3/0/physics_layer_0/polygon_0/points = PackedVector2Array(-4, -4, 4, -4, 4, 4, -4, 4)
1:3/0 = 0
1:3/0/physics_layer_0/linear_velocity = Vector2(0, 0)
1:3/0/physics_layer_0/angular_velocity = 0.0
1:3/0/physics_layer_0/polygon_0/points = PackedVector2Array(-4, -4, 4, -4, 4, 4, -4, 4)
1:4/0 = 0
1:4/0/physics_layer_0/linear_velocity = Vector2(0, 0)
1:4/0/physics_layer_0/angular_velocity = 0.0
1:4/0/physics_layer_0/polygon_0/points = PackedVector2Array(4.5, -4, 4, 4, -4, -4)
5:3/0 = 0
5:3/0/physics_layer_0/linear_velocity = Vector2(0, 0)
5:3/0/physics_layer_0/angular_velocity = 0.0
4:3/0 = 0
4:3/0/physics_layer_0/linear_velocity = Vector2(0, 0)
4:3/0/physics_layer_0/angular_velocity = 0.0
6:3/0 = 0
6:3/0/physics_layer_0/linear_velocity = Vector2(0, 0)
6:3/0/physics_layer_0/angular_velocity = 0.0
4:2/0 = 0
4:2/0/physics_layer_0/linear_velocity = Vector2(0, 0)
4:2/0/physics_layer_0/angular_velocity = 0.0
6:2/0 = 0
6:2/0/physics_layer_0/linear_velocity = Vector2(0, 0)
6:2/0/physics_layer_0/angular_velocity = 0.0
6:4/0 = 0
6:4/0/physics_layer_0/linear_velocity = Vector2(0, 0)
6:4/0/physics_layer_0/angular_velocity = 0.0
4:4/0 = 0
4:4/0/physics_layer_0/linear_velocity = Vector2(0, 0)
4:4/0/physics_layer_0/angular_velocity = 0.0
5:5/0 = 0
5:5/0/physics_layer_0/linear_velocity = Vector2(0, 0)
5:5/0/physics_layer_0/angular_velocity = 0.0

[sub_resource type="TileSet" id="TileSet_k0urs"]
tile_size = Vector2i(8, 8)
occlusion_layer_0/light_mask = 1
physics_layer_0/collision_layer = 1
sources/3 = SubResource("TileSetAtlasSource_qy1ad")

[sub_resource type="TileSetAtlasSource" id="TileSetAtlasSource_hxdc5"]
texture = ExtResource("2_wd1ce")
texture_region_size = Vector2i(16, 32)
0:0/0 = 0
0:0/0/physics_layer_0/linear_velocity = Vector2(0, 0)
0:0/0/physics_layer_0/angular_velocity = 0.0
2:0/0 = 0
2:0/0/physics_layer_0/linear_velocity = Vector2(0, 0)
2:0/0/physics_layer_0/angular_velocity = 0.0
3:0/0 = 0
3:0/0/physics_layer_0/linear_velocity = Vector2(0, 0)
3:0/0/physics_layer_0/angular_velocity = 0.0
4:0/0 = 0
4:0/0/physics_layer_0/linear_velocity = Vector2(0, 0)
4:0/0/physics_layer_0/angular_velocity = 0.0
1:0/0 = 0
1:0/0/physics_layer_0/linear_velocity = Vector2(0, 0)
1:0/0/physics_layer_0/angular_velocity = 0.0

[sub_resource type="TileSet" id="TileSet_g5cmf"]
tile_size = Vector2i(16, 32)
physics_layer_0/collision_layer = 1
sources/2 = SubResource("TileSetAtlasSource_hxdc5")

[sub_resource type="RectangleShape2D" id="RectangleShape2D_hareq"]
size = Vector2(1055, 73)

[node name="Level" type="Node2D" node_paths=PackedStringArray("can_posses")]
script = ExtResource("1_xrq0a")
can_posses = NodePath("CanPosses")

[node name="CanvasLayer" type="CanvasLayer" parent="."]
layer = -1
follow_viewport_enabled = true

[node name="Background" type="ColorRect" parent="CanvasLayer"]
custom_minimum_size = Vector2(1920, 1080)
anchors_preset = 15
anchor_right = 1.0
anchor_bottom = 1.0
offset_left = -932.0
offset_top = -572.0
offset_right = 988.0
offset_bottom = 508.0
grow_horizontal = 2
grow_vertical = 2
mouse_filter = 2
color = Color(0.0196078, 0.0196078, 0.0196078, 1)
metadata/_edit_lock_ = true

[node name="TileMap" type="TileMap" parent="."]
texture_filter = 3
tile_set = SubResource("TileSet_k0urs")
format = 2
layer_0/tile_data = PackedInt32Array(0, 0, 0, 1, 0, 0, 2, 0, 0, 3, 0, 0, 4, 0, 0, 5, 0, 0, 6, 0, 0, 7, 0, 0, 8, 0, 0, 9, 0, 0, 10, 0, 0, 11, 0, 0, 12, 0, 0, 13, 0, 0, 14, 0, 0, 15, 0, 0, 16, 0, 0, 17, 0, 0, 18, 0, 0, 19, 0, 0, 20, 0, 0, 21, 0, 0, 22, 0, 0, 23, 0, 0, 24, 0, 0, 25, 0, 0, 26, 0, 0, 27, 0, 0, 28, 0, 0, 29, 0, 0, 30, 0, 0, 31, 0, 0, 32, 0, 0, 33, 0, 0, 34, 0, 0, 35, 0, 0, 36, 0, 0, 37, 0, 0, 38, 0, 0, 41, 0, 0, 42, 0, 0, 43, 0, 0, 44, 0, 0, 45, 0, 0, 46, 0, 0, 47, 0, 0, 48, 0, 0, 49, 0, 0, 50, 0, 0, 51, 0, 0, 52, 0, 0, 40, 0, 0, 39, 0, 0, 53, 0, 0)
layer_1/name = "Background"
layer_1/enabled = true
layer_1/modulate = Color(1, 1, 1, 1)
layer_1/y_sort_enabled = false
layer_1/y_sort_origin = 0
layer_1/z_index = -1
layer_1/tile_data = PackedInt32Array()

[node name="TileMapBackground" type="TileMap" parent="."]
texture_filter = 3
tile_set = SubResource("TileSet_g5cmf")
format = 2

[node name="CanPosses" type="Node2D" parent="."]
z_index = 2

[node name="Camera2D" parent="." instance=ExtResource("4_jnl4y")]
zoom = Vector2(2.963, 2.963)
limit_left = 0
limit_bottom = 8
metadata/_edit_lock_ = true

[node name="LevelComplete" parent="." instance=ExtResource("11_lrfxw")]
layer = 2
visible = false

[node name="CanvasModulate" type="CanvasModulate" parent="."]
visible = false
color = Color(0, 0, 0, 1)
metadata/_edit_lock_ = true

[node name="CursorLight" type="PointLight2D" parent="."]
visible = false
position = Vector2(383, -215)
scale = Vector2(3.91406, 3.91406)
energy = 1.5
texture = ExtResource("6_m75fx")
texture_scale = 0.5
script = ExtResource("7_udsi3")
metadata/_edit_lock_ = true

[node name="DeathZone" type="Area2D" parent="."]
collision_mask = 7
script = ExtResource("8_28wvf")

[node name="CollisionShape2D" type="CollisionShape2D" parent="DeathZone"]
position = Vector2(216.5, 54.5)
shape = SubResource("RectangleShape2D_hareq")

[node name="BackgroundDim" parent="." instance=ExtResource("9_v28c6")]
offset_left = -940.0
offset_top = -532.0
offset_right = 980.0
offset_bottom = 548.0
metadata/_edit_lock_ = true

[node name="RestartReminder" parent="." instance=ExtResource("10_4sh11")]

[connection signal="next_level" from="LevelComplete" to="." method="_on_level_complete_next_level"]
[connection signal="restart" from="LevelComplete" to="." method="_on_level_complete_restart"]
[connection signal="body_entered" from="DeathZone" to="." method="_on_death_zone_body_entered"]
