[gd_scene load_steps=2 format=3 uid="uid://dwi5d5v4xy736"]

[ext_resource type="Texture2D" uid="uid://q5csbe7tt50q" path="res://MiniTutorials/EnemyTutorial.png" id="1_m7p6t"]

[node name="EnemyTutorial" type="Sprite2D"]
modulate = Color(1, 1, 1, 0.5)
texture_filter = 3
texture = ExtResource("1_m7p6t")
