[gd_scene load_steps=2 format=3 uid="uid://cljaduk61l2g7"]

[ext_resource type="Texture2D" uid="uid://drusk3r80xaxj" path="res://MiniTutorials/FlagTutorial.png" id="1_cl208"]

[node name="FlagTutorial" type="Sprite2D"]
modulate = Color(1, 1, 1, 0.5)
texture_filter = 3
texture = ExtResource("1_cl208")
