[gd_scene load_steps=2 format=3 uid="uid://cpeicd7yodkjr"]

[ext_resource type="Texture2D" uid="uid://bilamscaoiclc" path="res://MiniTutorials/PlayerJumpTutorial.png" id="1_tdowi"]

[node name="PlayerJumpTutorial" type="Sprite2D"]
modulate = Color(1, 1, 1, 0.5)
texture_filter = 3
texture = ExtResource("1_tdowi")
