[gd_scene load_steps=2 format=3 uid="uid://bq7dsdiq5n6je"]

[ext_resource type="Texture2D" uid="uid://cdkal0ooerouv" path="res://MiniTutorials/TrampolineTutorial.png" id="1_7rs5i"]

[node name="TrampolineTutorial" type="Sprite2D"]
modulate = Color(1, 1, 1, 0.5)
texture_filter = 3
texture = ExtResource("1_7rs5i")
