[gd_scene load_steps=4 format=3 uid="uid://bp6tftcfwcvqp"]

[ext_resource type="Texture2D" uid="uid://d4docg0xb5e27" path="res://CanPossesIndicator/Indicator.png" id="1_fagi0"]
[ext_resource type="Script" path="res://CanPossesIndicator/CanPossesIndicator.gd" id="1_oj060"]

[sub_resource type="RectangleShape2D" id="RectangleShape2D_k3tpe"]
size = Vector2(8, 8)

[node name="CanPossesIndicator" type="Node2D"]
script = ExtResource("1_oj060")

[node name="Area2D" type="Area2D" parent="."]
y_sort_enabled = true

[node name="CollisionShape2D" type="CollisionShape2D" parent="Area2D"]
shape = SubResource("RectangleShape2D_k3tpe")

[node name="Sprite2D" type="Sprite2D" parent="."]
texture_filter = 3
texture = ExtResource("1_fagi0")

[connection signal="input_event" from="Area2D" to="." method="_on_area_2d_input_event"]
[connection signal="mouse_entered" from="Area2D" to="." method="_on_area_2d_mouse_entered"]
[connection signal="mouse_exited" from="Area2D" to="." method="_on_area_2d_mouse_exited"]
